Marginal CO2 2/20-3/20
…
hourly_stats <- clean_data %>%
  group_by(hour) %>%
  summarise(
    mean_co2 = mean(marginal_co2_rate, na.rm = TRUE),
    median_co2 = median(marginal_co2_rate, na.rm = TRUE),
    sd_co2 = sd(marginal_co2_rate, na.rm = TRUE),
    count = n()
  ) %>%
  arrange(hour)

print(hourly_stats)

## # A tibble: 24 × 5
##     hour mean_co2 median_co2 sd_co2 count
##    <int>    <dbl>      <dbl>  <dbl> <int>
##  1     0    1348.      1337.   547.    23
##  2     1    1518.      1570.   496.    24
##  3     2    1531.      1546.   528.    24
##  4     3    1494.      1451.   724.    29
##  5     4    1396.      1299.   401.    28
##  6     5    1327.      1290.   290.    29
##  7     6    1314.      1361.   269.    28
##  8     7    1228.      1240.   253.    27
##  9     8    1321.      1306.   357.    29
## 10     9    1476.      1398.   421.    28
## # ℹ 14 more rows

hourly_sorted <- hourly_stats %>%
  arrange(median_co2)

print(hourly_sorted)

## # A tibble: 24 × 5
##     hour mean_co2 median_co2 sd_co2 count
##    <int>    <dbl>      <dbl>  <dbl> <int>
##  1    21    1156.      1087.   309.    28
##  2    20    1158.      1095.   318.    28
##  3    18    1178.      1165.   281.    27
##  4    15    1201.      1183.   301.    27
##  5    16    1170.      1196.   273.    29
##  6    17    1094.      1208.   527.    29
##  7    14    1207.      1223.   481.    27
##  8     7    1228.      1240.   253.    27
##  9    12    1353.      1259.   304.    28
## 10    19    1244.      1267.   370.    29
## # ℹ 14 more rows

hour_counts <- clean_data %>%
  group_by(hour) %>%
  summarise(count = n())

print(hour_counts)

## # A tibble: 24 × 2
##     hour count
##    <int> <int>
##  1     0    23
##  2     1    24
##  3     2    24
##  4     3    29
##  5     4    28
##  6     5    29
##  7     6    28
##  8     7    27
##  9     8    29
## 10     9    28
## # ℹ 14 more rows
…
